MEMSIZE	 	 10
CREATEPROC 	1 	20
CREATEPROC    	2   	30
READ	  	1	1
READ      2  1
READ      3  1
READ      4  1
READ      5  1
READ      6  1
READ      7  1
READ      8  1
READ      9  1
READ      10  1
WRITE     20  2
WRITE     20  2
READ      20  2
READ      1 1
READ      1 1
